<?xml version="1.0" encoding="utf-8"?>
<!-- Generator: Adobe Illustrator 14.0.0, SVG Export Plug-In . SVG Version: 6.00 Build 43363)  -->
<!DOCTYPE svg PUBLIC "-//W3C//DTD SVG 1.1//EN" "http://www.w3.org/Graphics/SVG/1.1/DTD/svg11.dtd">
<svg version="1.1" xmlns="http://www.w3.org/2000/svg" xmlns:xlink="http://www.w3.org/1999/xlink" x="0px" y="0px" width="41px"
	 height="24px" viewBox="1110.775 -978.555 41 24" enable-background="new 1110.775 -978.555 41 24" xml:space="preserve">
<g id="レイヤー">
	<g display="none">
		<rect x="416.796" y="-2026.211" display="inline" fill="#0062B0" width="203.276" height="0.938"/>
		<g display="inline">
			<linearGradient id="SVGID_1_" gradientUnits="userSpaceOnUse" x1="316.2007" y1="-2187.874" x2="1396.1732" y2="-2154.3154">
				<stop  offset="0" style="stop-color:#B9F0FF"/>
				<stop  offset="0.303" style="stop-color:#0065D0"/>
				<stop  offset="0.7212" style="stop-color:#9CCFED"/>
				<stop  offset="1" style="stop-color:#001D8B"/>
			</linearGradient>
			<path fill="url(#SVGID_1_)" d="M417.993-2195.344c-0.978,0.285-1.914,0.428-2.81,0.428c-1.425,0-2.463-0.251-3.114-0.753
				c-1.086-0.828-1.628-1.574-1.628-2.239c0-0.339,0.135-0.509,0.407-0.509c0.203,0,0.427,0.122,0.671,0.366
				c0.841,0.841,1.818,1.262,2.932,1.262c1.397,0,3.175-0.448,5.333-1.344c0.434-0.163,0.848-0.407,1.242-0.732
				c0.339-0.285,0.692-0.428,1.059-0.428c0.393,0,0.794,0.109,1.201,0.326c0.502,0.285,0.753,0.666,0.753,1.14
				c0,0.421-0.292,0.74-0.875,0.957c-1.127,0.462-1.961,0.957-2.504,1.486c-2.063,2.091-3.712,4.574-4.947,7.451
				c-1.154,2.673-1.73,5.238-1.73,7.695c0,2.442,0.651,4.417,1.954,5.923c1.248,1.384,3.087,2.077,5.517,2.077
				c2.063,0,3.962-0.713,5.7-2.138c1.438-1.194,2.497-2.68,3.175-4.458c1.249-3.284,1.873-7.423,1.873-12.417
				c0-2.796-0.238-4.797-0.712-6.005c-0.218-0.584-0.326-0.902-0.326-0.957c0-0.638,0.318-0.957,0.957-0.957
				c0.502,0,0.909,0.163,1.221,0.489c0.271,0.285,0.407,0.651,0.407,1.099c0,0.394,0.014,0.686,0.041,0.875
				c0.095,1.195,0.387,2.335,0.875,3.42c1.357,2.864,3.481,5.585,6.372,8.163c1.031,0.909,1.547,1.873,1.547,2.891
				c0,0.285-0.105,0.529-0.315,0.732c-0.211,0.204-0.465,0.306-0.763,0.306c-0.502,0-1.004-0.251-1.506-0.753
				c-3.094-3.257-5.259-6.677-6.494-10.26l-0.183,0.041c0.081,2.524,0.122,3.861,0.122,4.01c0,2.375-0.082,4.248-0.245,5.618
				c-0.217,1.751-0.61,3.379-1.181,4.886c-0.963,2.538-2.375,4.519-4.234,5.944c-1.737,1.343-3.685,2.015-5.842,2.015
				c-3.203,0-5.686-1.099-7.45-3.297c-1.452-1.778-2.178-4.179-2.178-7.206C412.313-2184.962,414.207-2190.011,417.993-2195.344z"/>
			<linearGradient id="SVGID_2_" gradientUnits="userSpaceOnUse" x1="316.2773" y1="-2190.2993" x2="1396.2411" y2="-2156.741">
				<stop  offset="0" style="stop-color:#B9F0FF"/>
				<stop  offset="0.303" style="stop-color:#0065D0"/>
				<stop  offset="0.7212" style="stop-color:#9CCFED"/>
				<stop  offset="1" style="stop-color:#001D8B"/>
			</linearGradient>
			<path fill="url(#SVGID_2_)" d="M460.354-2185.797c-1.059-0.542-1.669-1.764-1.832-3.664c-0.163-2.049-0.313-4.939-0.448-8.672
				c-0.041-0.814-0.238-1.343-0.59-1.588c-0.57-0.434-1.195-0.671-1.873-0.712c-0.136,0-0.203-0.095-0.203-0.285
				c0-0.244,0.217-0.475,0.651-0.692c0.366-0.176,0.732-0.265,1.099-0.265c1.004,0,2.083,0.476,3.236,1.425
				c0.556,0.461,0.835,0.916,0.835,1.364c0,0.244-0.149,0.563-0.448,0.957c-0.19,0.285-0.285,0.604-0.285,0.957
				c-0.027,1.004-0.041,1.982-0.041,2.931c0,1.818,0.075,3.664,0.224,5.537c0.108,1.045,0.454,1.588,1.038,1.628
				c0.041,0,0.082,0,0.122,0c0.271,0,0.604-0.088,0.998-0.265c1.886-0.896,3.657-1.825,5.313-2.788
				c0.583-0.339,0.875-0.638,0.875-0.896c0-0.393-0.428-0.882-1.283-1.465c-0.217-0.149-0.326-0.319-0.326-0.509
				c0-0.244,0.251-0.367,0.753-0.367c1.018,0,2.083,0.557,3.196,1.669c0.746,0.801,1.12,1.439,1.12,1.914
				c0,0.462-0.435,0.849-1.303,1.16c-4.18,1.507-7.05,2.646-8.611,3.42c-3.122,1.561-5.266,2.857-6.433,3.888
				c-1.493,1.33-2.239,2.775-2.239,4.335c0,2.945,2.612,4.417,7.837,4.417c3.379,0,6.019-0.292,7.918-0.875
				c0.542-0.176,1.004-0.265,1.384-0.265c0.706,0,1.33,0.184,1.873,0.55c0.502,0.326,0.753,0.713,0.753,1.16
				c0,0.448-0.19,0.768-0.57,0.957c-0.326,0.177-0.916,0.319-1.771,0.428c-1.873,0.285-4.356,0.427-7.451,0.427
				c-3.827,0-6.67-0.461-8.529-1.384c-2.104-1.059-3.155-2.769-3.155-5.13C452.191-2179.914,454.912-2183.015,460.354-2185.797z"/>
			<linearGradient id="SVGID_3_" gradientUnits="userSpaceOnUse" x1="316.2954" y1="-2190.6616" x2="1396.209" y2="-2157.105">
				<stop  offset="0" style="stop-color:#B9F0FF"/>
				<stop  offset="0.303" style="stop-color:#0065D0"/>
				<stop  offset="0.7212" style="stop-color:#9CCFED"/>
				<stop  offset="1" style="stop-color:#001D8B"/>
			</linearGradient>
			<path fill="url(#SVGID_3_)" d="M487.957-2184.453c0.189-0.665,0.454-1.5,0.794-2.504c0.42-1.194,0.671-1.927,0.753-2.198
				c1.248-3.556,2.483-6.087,3.705-7.593c0.909-1.14,1.838-1.71,2.789-1.71c1.846,0,3.345,1.208,4.499,3.623
				c1.004,2.104,1.506,4.661,1.506,7.674c0,5.144-1.35,9.377-4.051,12.702c-2.28,2.796-5.429,4.859-9.445,6.188
				c-0.421,0.136-0.712,0.204-0.875,0.204c-0.285,0-0.428-0.197-0.428-0.591c0-0.177,0.21-0.353,0.631-0.529
				c3.908-1.642,6.873-4.111,8.896-7.409c1.818-2.972,2.728-6.439,2.728-10.402c0-3.406-0.407-6.031-1.221-7.877
				c-0.651-1.493-1.466-2.239-2.443-2.239c-0.665,0-1.33,0.529-1.995,1.587c-1.317,1.982-2.538,4.906-3.664,8.774
				c-0.529,1.859-0.794,3.345-0.794,4.458c0,0.244,0.027,0.611,0.081,1.099c0.082,0.421,0.122,0.767,0.122,1.038
				c0,0.692-0.319,1.038-0.957,1.038c-0.407,0-0.814-0.271-1.221-0.814c-0.367-0.475-0.651-1.079-0.855-1.812
				c-0.367-1.316-0.55-3.039-0.55-5.17c0-2.212,0.292-4.784,0.875-7.716c0.42-1.994,0.631-3.439,0.631-4.335
				c0-1.235-0.285-2.151-0.855-2.749c-0.163-0.162-0.244-0.359-0.244-0.59c0-0.217,0.169-0.326,0.509-0.326
				c0.285,0,0.699,0.238,1.242,0.713c0.502,0.421,0.909,0.89,1.222,1.405c0.502,0.828,0.753,1.689,0.753,2.585
				c0,0.407-0.095,0.787-0.285,1.14c-0.258,0.394-0.482,0.834-0.671,1.323c-1.059,2.619-1.588,5.482-1.588,8.59
				c0,0.937,0.082,1.744,0.244,2.423H487.957z"/>
			<linearGradient id="SVGID_4_" gradientUnits="userSpaceOnUse" x1="316.3022" y1="-2191.0786" x2="1396.2585" y2="-2157.5205">
				<stop  offset="0" style="stop-color:#B9F0FF"/>
				<stop  offset="0.303" style="stop-color:#0065D0"/>
				<stop  offset="0.7212" style="stop-color:#9CCFED"/>
				<stop  offset="1" style="stop-color:#001D8B"/>
			</linearGradient>
			<path fill="url(#SVGID_4_)" d="M521.219-2195.344c-0.977,0.285-1.914,0.428-2.809,0.428c-1.425,0-2.463-0.251-3.114-0.753
				c-1.086-0.828-1.629-1.574-1.629-2.239c0-0.339,0.136-0.509,0.407-0.509c0.204,0,0.428,0.122,0.672,0.366
				c0.841,0.841,1.818,1.262,2.931,1.262c1.398,0,3.176-0.448,5.333-1.344c0.434-0.163,0.848-0.407,1.242-0.732
				c0.339-0.285,0.692-0.428,1.059-0.428c0.393,0,0.794,0.109,1.201,0.326c0.502,0.285,0.753,0.666,0.753,1.14
				c0,0.421-0.292,0.74-0.875,0.957c-1.126,0.462-1.961,0.957-2.504,1.486c-2.063,2.091-3.711,4.574-4.946,7.451
				c-1.154,2.673-1.73,5.238-1.73,7.695c0,2.442,0.651,4.417,1.954,5.923c1.249,1.384,3.087,2.077,5.517,2.077
				c2.063,0,3.963-0.713,5.7-2.138c1.438-1.194,2.497-2.68,3.176-4.458c1.248-3.284,1.873-7.423,1.873-12.417
				c0-2.796-0.238-4.797-0.712-6.005c-0.217-0.584-0.326-0.902-0.326-0.957c0-0.638,0.319-0.957,0.957-0.957
				c0.502,0,0.909,0.163,1.221,0.489c0.271,0.285,0.407,0.651,0.407,1.099c0,0.394,0.013,0.686,0.041,0.875
				c0.095,1.195,0.387,2.335,0.875,3.42c1.357,2.864,3.481,5.585,6.372,8.163c1.031,0.909,1.547,1.873,1.547,2.891
				c0,0.285-0.105,0.529-0.315,0.732c-0.211,0.204-0.465,0.306-0.764,0.306c-0.502,0-1.004-0.251-1.506-0.753
				c-3.094-3.257-5.259-6.677-6.494-10.26l-0.183,0.041c0.082,2.524,0.122,3.861,0.122,4.01c0,2.375-0.081,4.248-0.244,5.618
				c-0.217,1.751-0.611,3.379-1.181,4.886c-0.963,2.538-2.375,4.519-4.234,5.944c-1.737,1.343-3.685,2.015-5.842,2.015
				c-3.203,0-5.687-1.099-7.45-3.297c-1.453-1.778-2.178-4.179-2.178-7.206C515.54-2184.962,517.433-2190.011,521.219-2195.344z"/>
			<linearGradient id="SVGID_5_" gradientUnits="userSpaceOnUse" x1="316.376" y1="-2193.5039" x2="1396.3397" y2="-2159.9456">
				<stop  offset="0" style="stop-color:#B9F0FF"/>
				<stop  offset="0.303" style="stop-color:#0065D0"/>
				<stop  offset="0.7212" style="stop-color:#9CCFED"/>
				<stop  offset="1" style="stop-color:#001D8B"/>
			</linearGradient>
			<path fill="url(#SVGID_5_)" d="M563.58-2185.797c-1.059-0.542-1.669-1.764-1.832-3.664c-0.163-2.049-0.313-4.939-0.448-8.672
				c-0.041-0.814-0.238-1.343-0.59-1.588c-0.57-0.434-1.194-0.671-1.873-0.712c-0.136,0-0.204-0.095-0.204-0.285
				c0-0.244,0.217-0.475,0.651-0.692c0.367-0.176,0.733-0.265,1.099-0.265c1.004,0,2.083,0.476,3.237,1.425
				c0.556,0.461,0.834,0.916,0.834,1.364c0,0.244-0.149,0.563-0.448,0.957c-0.19,0.285-0.285,0.604-0.285,0.957
				c-0.027,1.004-0.041,1.982-0.041,2.931c0,1.818,0.075,3.664,0.224,5.537c0.108,1.045,0.454,1.588,1.038,1.628
				c0.041,0,0.082,0,0.122,0c0.271,0,0.604-0.088,0.998-0.265c1.886-0.896,3.657-1.825,5.313-2.788
				c0.583-0.339,0.875-0.638,0.875-0.896c0-0.393-0.427-0.882-1.282-1.465c-0.218-0.149-0.326-0.319-0.326-0.509
				c0-0.244,0.25-0.367,0.753-0.367c1.018,0,2.083,0.557,3.196,1.669c0.747,0.801,1.12,1.439,1.12,1.914
				c0,0.462-0.435,0.849-1.303,1.16c-4.18,1.507-7.05,2.646-8.61,3.42c-3.122,1.561-5.266,2.857-6.433,3.888
				c-1.493,1.33-2.239,2.775-2.239,4.335c0,2.945,2.612,4.417,7.837,4.417c3.379,0,6.018-0.292,7.918-0.875
				c0.542-0.176,1.004-0.265,1.384-0.265c0.705,0,1.329,0.184,1.873,0.55c0.502,0.326,0.753,0.713,0.753,1.16
				c0,0.448-0.19,0.768-0.57,0.957c-0.326,0.177-0.916,0.319-1.771,0.428c-1.873,0.285-4.356,0.427-7.45,0.427
				c-3.827,0-6.67-0.461-8.529-1.384c-2.104-1.059-3.155-2.769-3.155-5.13C555.417-2179.914,558.138-2183.015,563.58-2185.797z"/>
			<linearGradient id="SVGID_6_" gradientUnits="userSpaceOnUse" x1="316.4009" y1="-2193.8662" x2="1396.3123" y2="-2160.3096">
				<stop  offset="0" style="stop-color:#B9F0FF"/>
				<stop  offset="0.303" style="stop-color:#0065D0"/>
				<stop  offset="0.7212" style="stop-color:#9CCFED"/>
				<stop  offset="1" style="stop-color:#001D8B"/>
			</linearGradient>
			<path fill="url(#SVGID_6_)" d="M591.183-2184.453c0.19-0.665,0.455-1.5,0.794-2.504c0.42-1.194,0.672-1.927,0.753-2.198
				c1.248-3.556,2.483-6.087,3.705-7.593c0.908-1.14,1.838-1.71,2.788-1.71c1.846,0,3.345,1.208,4.499,3.623
				c1.004,2.104,1.507,4.661,1.507,7.674c0,5.144-1.351,9.377-4.052,12.702c-2.279,2.796-5.428,4.859-9.445,6.188
				c-0.421,0.136-0.712,0.204-0.875,0.204c-0.285,0-0.427-0.197-0.427-0.591c0-0.177,0.21-0.353,0.631-0.529
				c3.909-1.642,6.874-4.111,8.896-7.409c1.818-2.972,2.728-6.439,2.728-10.402c0-3.406-0.407-6.031-1.222-7.877
				c-0.651-1.493-1.466-2.239-2.442-2.239c-0.665,0-1.33,0.529-1.995,1.587c-1.316,1.982-2.538,4.906-3.664,8.774
				c-0.529,1.859-0.794,3.345-0.794,4.458c0,0.244,0.027,0.611,0.082,1.099c0.082,0.421,0.122,0.767,0.122,1.038
				c0,0.692-0.319,1.038-0.957,1.038c-0.407,0-0.814-0.271-1.222-0.814c-0.366-0.475-0.651-1.079-0.855-1.812
				c-0.366-1.316-0.549-3.039-0.549-5.17c0-2.212,0.292-4.784,0.875-7.716c0.421-1.994,0.631-3.439,0.631-4.335
				c0-1.235-0.285-2.151-0.855-2.749c-0.163-0.162-0.244-0.359-0.244-0.59c0-0.217,0.169-0.326,0.509-0.326
				c0.285,0,0.698,0.238,1.242,0.713c0.502,0.421,0.909,0.89,1.221,1.405c0.502,0.828,0.753,1.689,0.753,2.585
				c0,0.407-0.095,0.787-0.285,1.14c-0.258,0.394-0.482,0.834-0.672,1.323c-1.058,2.619-1.587,5.482-1.587,8.59
				c0,0.937,0.081,1.744,0.244,2.423H591.183z"/>
			<linearGradient id="SVGID_7_" gradientUnits="userSpaceOnUse" x1="316.4224" y1="-2194.6914" x2="1396.361" y2="-2161.1338">
				<stop  offset="0" style="stop-color:#B9F0FF"/>
				<stop  offset="0.303" style="stop-color:#0065D0"/>
				<stop  offset="0.7212" style="stop-color:#9CCFED"/>
				<stop  offset="1" style="stop-color:#001D8B"/>
			</linearGradient>
			<path fill="url(#SVGID_7_)" d="M624.383-2185.044c0.122-0.325,0.306-0.488,0.551-0.488c0.312,0,0.468,0.122,0.468,0.366
				c0,0.068-0.027,0.211-0.082,0.428c-0.896,2.972-1.595,5.503-2.096,7.593c-0.368,1.439-0.551,2.396-0.551,2.87l0.144,2.382
				c0,0.72-0.306,1.079-0.917,1.079c-0.665,0-1.208-0.502-1.628-1.507c-0.978-2.402-1.466-5.156-1.466-8.265
				c0-3.27,0.664-7.423,1.995-12.458c0.393-1.506,0.59-2.484,0.59-2.931c0-0.909-0.435-1.798-1.303-2.667
				c-0.217-0.217-0.326-0.427-0.326-0.631c0-0.244,0.123-0.366,0.367-0.366c0.801,0,1.764,0.739,2.89,2.219
				c0.693,0.896,1.039,1.812,1.039,2.748c0,0.665-0.197,1.194-0.59,1.588c-0.272,0.271-0.536,0.739-0.795,1.404
				c-0.569,1.466-1.065,3.284-1.485,5.455c-0.421,2.131-0.632,4.038-0.632,5.721c0,1.384,0.082,2.47,0.245,3.257
				c0.081,0.394,0.196,0.59,0.345,0.59c0.163,0,0.286-0.115,0.368-0.346C622.856-2180.856,623.814-2183.537,624.383-2185.044z
				 M630.165-2184.413c0.23,0,0.346,0.122,0.346,0.367c0,0.04-0.006,0.102-0.02,0.183c-0.204,1.059-0.306,1.961-0.306,2.708
				c0,1.899,0.665,3.297,1.995,4.193c1.466,0.95,3.596,1.425,6.392,1.425c1.846,0,3.467-0.169,4.865-0.509
				c0.516-0.136,1.072-0.204,1.669-0.204c1.669,0,2.504,0.462,2.504,1.385c0,0.583-0.36,0.983-1.079,1.201
				c-1.249,0.367-3.223,0.549-5.924,0.549c-4.437,0-7.545-0.719-9.322-2.157c-1.561-1.208-2.342-2.932-2.342-5.171
				c0-1.234,0.259-2.449,0.774-3.644C629.825-2184.304,629.974-2184.413,630.165-2184.413z M636.822-2193.919
				c0.081-0.095,0.121-0.169,0.121-0.224c0-0.054-0.054-0.081-0.163-0.081c-0.026,0-0.061,0-0.101,0
				c-1.725,0.244-3.766,0.889-6.127,1.934c-0.219,0.108-0.382,0.163-0.488,0.163c-0.313,0-0.469-0.135-0.469-0.407
				c0-0.271,0.168-0.509,0.508-0.712c3.218-2.036,7.118-3.054,11.705-3.054c2.226,0,3.339,0.529,3.339,1.588
				c0,0.747-0.427,1.12-1.283,1.12l-2.931-0.123c-0.91,0-1.771,0.225-2.585,0.672c-0.828,0.421-2.104,1.432-3.827,3.033
				c-0.218,0.218-0.4,0.326-0.549,0.326c-0.3,0-0.449-0.108-0.449-0.326c0-0.176,0.081-0.373,0.244-0.59
				C634.717-2191.781,635.736-2192.887,636.822-2193.919z"/>
			<linearGradient id="SVGID_8_" gradientUnits="userSpaceOnUse" x1="316.4785" y1="-2196.4912" x2="1396.4141" y2="-2162.9338">
				<stop  offset="0" style="stop-color:#B9F0FF"/>
				<stop  offset="0.303" style="stop-color:#0065D0"/>
				<stop  offset="0.7212" style="stop-color:#9CCFED"/>
				<stop  offset="1" style="stop-color:#001D8B"/>
			</linearGradient>
			<path fill="url(#SVGID_8_)" d="M672.342-2201.593c-4.396,7.857-10.706,13.646-18.93,17.363c-0.028,0.014-0.048,0.021-0.062,0.021
				c-0.203,0-0.306-0.136-0.306-0.407c0-0.067,0.027-0.122,0.081-0.163c3.353-1.995,6.48-4.553,9.386-7.674
				c2.429-2.619,4.369-5.279,5.82-7.979c0.896-1.642,1.494-2.972,1.792-3.99c2.103,0.598,3.372,0.991,3.807,1.181
				c0.338,0.149,0.509,0.34,0.509,0.57c0,0.244-0.435,0.468-1.303,0.672c2.185,3.597,5.13,6.778,8.835,9.547
				c2.836,2.09,6.194,3.719,10.075,4.886c0.096,0.014,0.143,0.075,0.143,0.183c0,0.122-0.062,0.197-0.183,0.224
				c-0.544,0.095-0.951,0.279-1.221,0.549c-0.259,0.259-0.489,0.699-0.693,1.323c-0.135,0.366-0.332,0.55-0.59,0.55
				c-0.298,0-0.753-0.184-1.364-0.55c-3.134-1.791-5.801-3.718-8-5.781C677.032-2194,674.432-2197.508,672.342-2201.593z
				 M680.771-2169.817h-18.057v1.873c0,0.719-0.556,1.079-1.668,1.079c-0.721,0-1.08-0.306-1.08-0.916l0.163-8.672
				c0-3.148-0.054-5.706-0.163-7.675c1.153,0.557,2.206,1.127,3.155,1.71h17.363c0.856-0.977,1.379-1.465,1.569-1.465
				c0.216,0,0.826,0.434,1.831,1.303c0.475,0.38,0.713,0.699,0.713,0.957c0,0.299-0.388,0.672-1.16,1.12v3.644l0.121,8.875
				c0,0.746-0.569,1.12-1.71,1.12c-0.719,0-1.078-0.319-1.078-0.957V-2169.817z M680.771-2170.855v-10.524h-18.057v10.524H680.771z
				 M664.587-2188.097l-0.387-1.527c0.937,0.163,1.939,0.245,3.012,0.245h7.595c1.099-1.276,1.75-1.914,1.954-1.914
				c0.23,0,0.97,0.488,2.219,1.466c0.582,0.475,0.876,0.849,0.876,1.119c0,0.244-0.186,0.367-0.551,0.367h-12.132
				C666.317-2188.341,665.456-2188.26,664.587-2188.097z"/>
			<linearGradient id="SVGID_9_" gradientUnits="userSpaceOnUse" x1="316.3325" y1="-2191.9224" x2="1396.2832" y2="-2158.3645">
				<stop  offset="0" style="stop-color:#B9F0FF"/>
				<stop  offset="0.303" style="stop-color:#0065D0"/>
				<stop  offset="0.7212" style="stop-color:#9CCFED"/>
				<stop  offset="1" style="stop-color:#001D8B"/>
			</linearGradient>
			<path fill="url(#SVGID_9_)" d="M713.83-2188.667c2.55,0,4.619,0.747,6.208,2.239c1.587,1.466,2.381,3.243,2.381,5.333
				c0,3.108-1.737,5.639-5.211,7.593c-2.796,1.547-6.16,2.463-10.097,2.748c-0.272,0.027-0.646,0.041-1.12,0.041
				c-0.502,0-0.753-0.196-0.753-0.59c0-0.313,0.211-0.489,0.632-0.53c3.962-0.529,7.186-1.547,9.67-3.053
				c2.861-1.777,4.293-3.908,4.293-6.392c0-1.778-0.502-3.183-1.505-4.214c-1.101-1.141-2.586-1.71-4.459-1.71
				c-1.954,0-3.955,0.502-6.005,1.506c-1.343,0.679-3.189,1.826-5.537,3.44c-0.598,0.462-1.03,0.849-1.303,1.16
				c-0.312,0.421-0.699,0.631-1.16,0.631c-0.746,0-1.566-0.556-2.462-1.669c-0.64-0.841-0.958-1.547-0.958-2.117
				c0-0.529,0.124-0.794,0.368-0.794c0.135,0,0.331,0.184,0.59,0.55c0.488,0.72,0.949,1.106,1.384,1.16c0.067,0,0.135,0,0.202,0
				c0.407,0,0.896-0.142,1.466-0.427c4.058-1.981,6.25-3.046,6.576-3.196C709.526-2188.097,711.793-2188.667,713.83-2188.667z"/>
			<linearGradient id="SVGID_10_" gradientUnits="userSpaceOnUse" x1="316.5283" y1="-2198.8765" x2="1396.5306" y2="-2165.3169">
				<stop  offset="0" style="stop-color:#B9F0FF"/>
				<stop  offset="0.303" style="stop-color:#0065D0"/>
				<stop  offset="0.7212" style="stop-color:#9CCFED"/>
				<stop  offset="1" style="stop-color:#001D8B"/>
			</linearGradient>
			<path fill="url(#SVGID_10_)" d="M743.793-2193.471c1.452-0.475,2.856-1.031,4.214-1.669c0.95-0.448,1.621-0.672,2.015-0.672
				c0.354,0,0.651,0.095,0.896,0.285c0.258,0.204,0.387,0.455,0.387,0.753c0,0.57-0.488,1.045-1.465,1.425
				c-2.157,0.801-4.432,1.526-6.82,2.178c-3.597,10.07-6.166,16.882-7.714,20.438c-0.313,0.692-0.76,1.038-1.344,1.038
				c-0.407,0-0.728-0.135-0.958-0.407c-0.19-0.285-0.283-0.597-0.283-0.936c0-0.23,0.067-0.509,0.202-0.834
				c2.864-5.659,5.531-11.915,8.002-18.769c-1.766,0.421-3.251,0.631-4.459,0.631c-1.656,0-3.007-0.387-4.052-1.16
				c-0.8-0.569-1.201-1.085-1.201-1.547c0-0.312,0.157-0.468,0.469-0.468c0.123,0,0.379,0.129,0.774,0.387
				c0.949,0.638,2.137,0.957,3.561,0.957c1.452,0,3.339-0.359,5.66-1.079c0.489-1.37,0.882-2.611,1.18-3.725
				c0.272-0.978,0.407-1.696,0.407-2.158c0-0.977-0.665-1.607-1.994-1.893c-0.477-0.095-0.713-0.23-0.713-0.407
				c0-0.189,0.197-0.373,0.59-0.55c0.461-0.136,0.836-0.203,1.12-0.203c0.421,0,1.005,0.149,1.752,0.447
				c0.719,0.285,1.303,0.611,1.75,0.978c0.475,0.38,0.713,0.78,0.713,1.201c0,0.488-0.197,0.882-0.59,1.18
				c-0.259,0.204-0.551,0.672-0.876,1.405C744.864-2196.334,744.457-2195.276,743.793-2193.471z M747.253-2178.082
				c-0.177,0.625-0.265,1.303-0.265,2.036c0,1.547,0.705,2.687,2.117,3.419c1.112,0.584,2.965,0.875,5.557,0.875
				c1.356,0,2.634-0.136,3.827-0.407c0.611-0.163,1.182-0.244,1.71-0.244c0.435,0,0.862,0.081,1.283,0.244
				c0.556,0.231,0.834,0.618,0.834,1.16c0,0.421-0.136,0.727-0.407,0.916c-0.258,0.19-0.719,0.333-1.385,0.428
				c-1.33,0.189-2.842,0.285-4.537,0.285c-3.462,0-6.034-0.516-7.716-1.547c-0.842-0.515-1.499-1.201-1.974-2.056
				c-0.436-0.759-0.652-1.533-0.652-2.32c0-0.95,0.251-1.975,0.753-3.074c0.217-0.502,0.469-0.753,0.753-0.753
				c0.19,0,0.286,0.109,0.286,0.326C747.438-2178.754,747.376-2178.516,747.253-2178.082z M755.233-2187.222
				c0.163-0.136,0.244-0.237,0.244-0.306c0-0.067-0.096-0.108-0.284-0.122c-0.19-0.013-0.407-0.02-0.651-0.02
				c-2.647,0-4.865,0.482-6.657,1.445c-0.162,0.068-0.312,0.102-0.446,0.102c-0.232,0-0.348-0.095-0.348-0.285
				c0-0.217,0.109-0.414,0.325-0.591c2.185-1.614,4.813-2.422,7.879-2.422c0.217,0,0.455,0.007,0.713,0.02
				c1.668,0.095,2.979,0.367,3.928,0.814c0.814,0.394,1.202,0.903,1.16,1.527c-0.04,0.638-0.373,0.93-0.997,0.875
				c-0.244,0-0.55-0.067-0.915-0.204c-0.517-0.163-0.89-0.245-1.12-0.245c-0.067,0-0.136,0-0.203,0c-0.407,0-0.884,0.13-1.426,0.387
				c-0.502,0.217-1.906,1.106-4.214,2.667c-0.244,0.136-0.467,0.204-0.672,0.204c-0.19,0-0.283-0.115-0.283-0.347
				c0-0.108,0.127-0.285,0.385-0.529C751.99-2184.548,753.183-2185.539,755.233-2187.222z"/>
			<linearGradient id="SVGID_11_" gradientUnits="userSpaceOnUse" x1="314.3599" y1="-2128.6484" x2="1394.3395" y2="-2095.0896">
				<stop  offset="0" style="stop-color:#B9F0FF"/>
				<stop  offset="0.303" style="stop-color:#0065D0"/>
				<stop  offset="0.7212" style="stop-color:#9CCFED"/>
				<stop  offset="1" style="stop-color:#001D8B"/>
			</linearGradient>
			<path fill="url(#SVGID_11_)" d="M427.092-2131.179c3.365-0.312,5.917-0.563,7.654-0.753c0.692-0.068,1.221-0.204,1.588-0.407
				c0.515-0.312,0.916-0.469,1.201-0.469c0.977,0,1.907,0.211,2.789,0.631c0.896,0.394,1.343,0.889,1.343,1.486
				c0,0.692-0.461,1.038-1.384,1.038c-0.204,0-0.495-0.026-0.875-0.081c-0.448-0.054-0.781-0.088-0.998-0.102
				c-0.502-0.041-1.133-0.062-1.893-0.062c-0.34,0-0.679,0.007-1.018,0.021c-1.968,0-4.77,0.122-8.407,0.366
				c0.013,0.76,0.02,2.043,0.02,3.848c0,1.75,0.007,2.965,0.021,3.644c0,0.584,0.027,1.853,0.082,3.807
				c0.082,1.615,0.122,2.891,0.122,3.827c0,0.882-0.238,1.717-0.712,2.504c-0.584,1.004-1.154,1.506-1.71,1.506
				c-0.462,0-0.781-0.332-0.957-0.997c-0.123-0.57-0.441-0.991-0.957-1.262c-0.91-0.542-1.988-1.024-3.236-1.445
				c-0.394-0.136-0.591-0.36-0.591-0.672c0-0.285,0.156-0.427,0.468-0.427c0.041,0,0.082,0,0.123,0
				c1.954,0.339,3.419,0.509,4.396,0.509c0.326,0,0.536-0.054,0.631-0.163c0.082-0.095,0.122-0.305,0.122-0.631l0.041-13.842
				c-3.23,0.353-6.121,0.753-8.671,1.201c-0.679,0.122-1.195,0.279-1.547,0.468c-0.434,0.271-0.794,0.407-1.079,0.407
				c-0.814,0-1.676-0.557-2.585-1.669c-0.692-0.869-1.038-1.547-1.038-2.036c0-0.176,0.061-0.332,0.183-0.468
				c0.108-0.108,0.217-0.163,0.326-0.163c0.136,0,0.38,0.184,0.733,0.55c0.882,0.773,1.73,1.16,2.544,1.16
				c0.38,0,1.16-0.067,2.341-0.204c5.266-0.502,8.184-0.779,8.753-0.834l-0.041-5.781c0-0.814-0.17-1.316-0.509-1.507
				c-0.271-0.135-0.91-0.203-1.914-0.203c-0.299,0-0.448-0.143-0.448-0.428c0-0.217,0.149-0.42,0.448-0.61
				c0.611-0.421,1.391-0.631,2.341-0.631c0.651,0,1.445,0.265,2.381,0.794c0.801,0.475,1.201,0.916,1.201,1.323
				c0,0.326-0.197,0.658-0.59,0.998c-0.339,0.299-0.529,0.95-0.57,1.954C427.16-2133.683,427.119-2132.414,427.092-2131.179z
				 M417.118-2124.461c0.108-0.339,0.292-0.509,0.55-0.509c0.271,0,0.407,0.17,0.407,0.509c0,2.198-0.57,4.187-1.71,5.964
				c-1.167,1.832-2.259,2.748-3.277,2.748c-0.434,0-0.78-0.143-1.038-0.427c-0.231-0.245-0.346-0.55-0.346-0.916
				c0-0.692,0.515-1.357,1.547-1.995c0.882-0.556,1.683-1.336,2.402-2.34C416.33-2122.31,416.819-2123.321,417.118-2124.461z
				 M432.71-2124.136c-0.299-0.217-0.448-0.42-0.448-0.61c0-0.339,0.183-0.509,0.549-0.509c0.108,0,0.387,0.081,0.835,0.244
				c2.008,0.841,3.623,1.825,4.845,2.951c1.262,1.154,1.893,2.301,1.893,3.44s-0.462,1.71-1.384,1.71
				c-0.407,0-0.733-0.122-0.977-0.366c-0.244-0.23-0.502-0.651-0.773-1.262C436.327-2120.722,434.813-2122.589,432.71-2124.136z"/>
			<linearGradient id="SVGID_12_" gradientUnits="userSpaceOnUse" x1="314.3838" y1="-2129.4487" x2="1394.3612" y2="-2095.8899">
				<stop  offset="0" style="stop-color:#B9F0FF"/>
				<stop  offset="0.303" style="stop-color:#0065D0"/>
				<stop  offset="0.7212" style="stop-color:#9CCFED"/>
				<stop  offset="1" style="stop-color:#001D8B"/>
			</linearGradient>
			<path fill="url(#SVGID_12_)" d="M466.726-2137.591c0-0.978-0.183-1.662-0.55-2.056c-0.326-0.367-1.018-0.699-2.076-0.998
				c-0.367-0.081-0.55-0.258-0.55-0.529c0-0.217,0.183-0.413,0.55-0.59c0.312-0.136,0.645-0.204,0.998-0.204
				c0.732,0,1.723,0.279,2.972,0.835c1.357,0.597,2.036,1.235,2.036,1.913c0,0.271-0.129,0.55-0.387,0.835
				c-0.271,0.271-0.421,0.964-0.448,2.076c-0.109,5.768-0.251,9.412-0.428,10.931c-0.38,3.732-1.35,6.717-2.911,8.957
				c-2.701,3.868-6.895,6.65-12.58,8.346c-0.435,0.082-0.699,0.123-0.794,0.123c-0.394,0-0.59-0.17-0.59-0.509
				c0-0.271,0.136-0.448,0.407-0.529c2.619-0.882,5.089-2.246,7.41-4.092c2.036-1.629,3.548-3.325,4.539-5.089
				c1.181-2.077,1.907-4.838,2.178-8.285c0.149-1.981,0.224-4.52,0.224-7.613V-2137.591z M455.794-2134.944
				c0-1.181-0.122-1.94-0.367-2.28c-0.326-0.488-0.869-0.896-1.628-1.222c-0.366-0.135-0.55-0.285-0.55-0.447
				c0-0.204,0.143-0.394,0.428-0.57c0.204-0.122,0.393-0.183,0.57-0.183c0.8,0,1.777,0.374,2.931,1.12
				c1.167,0.773,1.751,1.411,1.751,1.913c0,0.285-0.136,0.564-0.407,0.835c-0.244,0.244-0.387,0.862-0.428,1.853
				c-0.081,2.497-0.122,6.371-0.122,11.623c0,1.14-0.319,1.71-0.957,1.71c-0.462,0-0.875-0.332-1.242-0.997
				c-0.34-0.611-0.509-1.289-0.509-2.036c0-0.393,0.054-0.759,0.163-1.099c0.108-0.394,0.176-0.808,0.204-1.242
				C455.74-2128.994,455.794-2131.986,455.794-2134.944z"/>
			<linearGradient id="SVGID_13_" gradientUnits="userSpaceOnUse" x1="314.4023" y1="-2129.8271" x2="1394.3417" y2="-2096.2695">
				<stop  offset="0" style="stop-color:#B9F0FF"/>
				<stop  offset="0.303" style="stop-color:#0065D0"/>
				<stop  offset="0.7212" style="stop-color:#9CCFED"/>
				<stop  offset="1" style="stop-color:#001D8B"/>
			</linearGradient>
			<path fill="url(#SVGID_13_)" d="M498.868-2124.299c4.505,1.833,7.979,3.983,10.422,6.453c1.303,1.371,1.954,2.47,1.954,3.298
				c0,1.032-0.4,1.547-1.201,1.547c-0.651,0-1.235-0.373-1.751-1.119c-3.135-4.315-6.595-7.376-10.381-9.181
				c-4.533,4.872-9.785,8.57-15.756,11.094c-0.488,0.218-0.862,0.326-1.12,0.326c-0.339,0-0.509-0.143-0.509-0.428
				c0-0.23,0.108-0.407,0.326-0.529c5.672-3.107,10.3-6.568,13.883-10.382c2.999-3.175,5.517-6.575,7.552-10.198
				c0.136-0.244,0.204-0.4,0.204-0.468c0-0.054-0.068-0.082-0.204-0.082c-1.914,0-5.734,0.529-11.46,1.588
				c-0.651,0.122-1.126,0.278-1.425,0.468c-0.34,0.19-0.686,0.285-1.038,0.285c-0.788,0-1.745-0.583-2.871-1.75
				c-0.692-0.706-1.038-1.445-1.038-2.219c0-0.42,0.122-0.631,0.367-0.631c0.149,0,0.332,0.116,0.549,0.346
				c1.059,1.059,2.103,1.588,3.135,1.588c0.19,0,1.242-0.082,3.155-0.245l9.547-0.998c0.692-0.095,1.235-0.332,1.629-0.712
				c0.298-0.312,0.556-0.468,0.773-0.468c0.448,0,1.133,0.319,2.056,0.957c0.774,0.57,1.161,1.099,1.161,1.588
				c0,0.325-0.346,0.631-1.038,0.916c-0.543,0.203-0.977,0.577-1.303,1.119C503.034-2129.733,501.161-2127.121,498.868-2124.299z"/>
			<linearGradient id="SVGID_14_" gradientUnits="userSpaceOnUse" x1="314.4375" y1="-2131.1069" x2="1394.4009" y2="-2097.5486">
				<stop  offset="0" style="stop-color:#B9F0FF"/>
				<stop  offset="0.303" style="stop-color:#0065D0"/>
				<stop  offset="0.7212" style="stop-color:#9CCFED"/>
				<stop  offset="1" style="stop-color:#001D8B"/>
			</linearGradient>
			<path fill="url(#SVGID_14_)" d="M534.674-2128.594c-3.081,0.231-5.836,0.563-8.265,0.998c-1.167,0.217-1.887,0.414-2.158,0.59
				c-0.299,0.19-0.651,0.285-1.059,0.285c-0.733,0-1.534-0.421-2.402-1.262c-0.923-0.814-1.384-1.506-1.384-2.077
				c0-0.475,0.108-0.712,0.326-0.712c0.108,0,0.237,0.055,0.387,0.163c1.085,0.923,2.029,1.384,2.83,1.384
				c0.61,0,1.289-0.041,2.036-0.122c2.388-0.258,5.794-0.576,10.219-0.957c0.882-0.081,2.551-0.224,5.007-0.427
				c1.737-0.135,3.196-0.258,4.376-0.367c0.869-0.081,1.466-0.224,1.792-0.427c0.42-0.271,0.8-0.407,1.14-0.407
				c0.828,0,1.757,0.292,2.789,0.875c0.665,0.394,0.998,0.834,0.998,1.323c0,0.584-0.319,0.875-0.957,0.875
				c-0.339,0-0.848-0.034-1.526-0.102c-0.611-0.054-1.106-0.088-1.486-0.102c-0.706-0.027-1.425-0.041-2.157-0.041
				c-0.733,0-1.459,0.014-2.178,0.041c-1.697,0.027-3.793,0.129-6.29,0.305c1.248,0.733,1.873,1.358,1.873,1.873
				c0,0.204-0.082,0.421-0.244,0.651c-0.271,0.34-0.441,0.631-0.509,0.875c-0.747,3.149-2.178,6.182-4.295,9.099
				c-2.267,3.054-4.946,5.49-8.041,7.308c-0.285,0.163-0.543,0.245-0.773,0.245c-0.313,0-0.468-0.17-0.468-0.509
				c0-0.203,0.135-0.407,0.407-0.61c2.917-2.266,5.251-4.811,7.002-7.634c1.669-2.632,2.85-5.387,3.542-8.265
				c0.108-0.475,0.163-0.889,0.163-1.241C535.366-2127.63,535.135-2128.173,534.674-2128.594z M529.3-2138.1
				c0.529,0,1.683-0.055,3.46-0.163c2.103-0.204,4.003-0.441,5.7-0.712c1.126-0.176,1.906-0.36,2.341-0.55
				c0.597-0.244,1.1-0.367,1.506-0.367c0.787,0,1.398,0.137,1.832,0.407c0.611,0.407,0.916,0.828,0.916,1.263
				c0,0.543-0.421,0.861-1.262,0.956c-2.728,0.259-6.657,0.577-11.787,0.957c-1.167,0.109-2.056,0.163-2.667,0.163
				c-1.004,0-1.907-0.319-2.708-0.957c-1.004-0.814-1.506-1.479-1.506-1.995c0-0.393,0.156-0.59,0.468-0.59
				c0.082,0,0.258,0.108,0.529,0.325C527.197-2138.521,528.255-2138.1,529.3-2138.1z"/>
			<linearGradient id="SVGID_15_" gradientUnits="userSpaceOnUse" x1="314.394" y1="-2129.6226" x2="1394.3505" y2="-2096.0645">
				<stop  offset="0" style="stop-color:#B9F0FF"/>
				<stop  offset="0.303" style="stop-color:#0065D0"/>
				<stop  offset="0.7212" style="stop-color:#9CCFED"/>
				<stop  offset="1" style="stop-color:#001D8B"/>
			</linearGradient>
			<path fill="url(#SVGID_15_)" d="M569.483-2124.97c-3.46,3.746-7.111,6.751-10.951,9.018c-0.407,0.244-0.699,0.366-0.875,0.366
				c-0.136,0-0.251-0.082-0.346-0.244c-0.081-0.122-0.122-0.237-0.122-0.346c0-0.149,0.156-0.339,0.468-0.57
				c2.999-2.144,6.052-4.858,9.16-8.143c2.008-2.117,3.759-4.241,5.252-6.372c0.367-0.502,0.55-0.943,0.55-1.323
				c0-0.434-0.428-0.855-1.283-1.262c-0.312-0.148-0.468-0.298-0.468-0.447c0-0.312,0.448-0.469,1.344-0.469
				c0.637,0,1.452,0.346,2.443,1.038c0.977,0.638,1.465,1.235,1.465,1.792c0,0.421-0.21,0.699-0.631,0.834
				c-0.421,0.136-0.794,0.401-1.12,0.794c-0.706,0.842-2.015,2.287-3.929,4.336c1.194,0.828,1.792,1.425,1.792,1.792
				c0,0.136-0.035,0.292-0.102,0.468c-0.068,0.177-0.102,0.285-0.102,0.326c-0.082,0.406-0.136,1.044-0.163,1.913
				c-0.027,0.692-0.041,1.506-0.041,2.442c0,0.991,0.013,2.043,0.041,3.155c0.027,1.303,0.041,3.271,0.041,5.903
				c0,0.978-0.346,1.466-1.039,1.466c-0.407,0-0.753-0.292-1.038-0.875c-0.394-0.773-0.59-1.465-0.59-2.077
				c0-0.257,0.067-0.522,0.204-0.793c0.122-0.258,0.204-0.747,0.244-1.466c0.014-0.298,0.054-1.893,0.123-4.783
				c0.026-1.344,0.041-2.774,0.041-4.295C569.85-2123.986,569.728-2124.712,569.483-2124.97z"/>
			<linearGradient id="SVGID_16_" gradientUnits="userSpaceOnUse" x1="314.3838" y1="-2129.2231" x2="1394.3298" y2="-2095.6653">
				<stop  offset="0" style="stop-color:#B9F0FF"/>
				<stop  offset="0.303" style="stop-color:#0065D0"/>
				<stop  offset="0.7212" style="stop-color:#9CCFED"/>
				<stop  offset="1" style="stop-color:#001D8B"/>
			</linearGradient>
			<path fill="url(#SVGID_16_)" d="M587.621-2129.103c-0.163-0.204-0.244-0.366-0.244-0.488c0-0.095,0.061-0.197,0.183-0.306
				c0.122-0.081,0.23-0.122,0.326-0.122c0.081,0,0.257,0.068,0.529,0.204c0.896,0.516,1.716,1.201,2.463,2.056
				c0.896,1.004,1.344,1.975,1.344,2.911c0,0.502-0.157,0.903-0.468,1.201c-0.245,0.231-0.537,0.346-0.875,0.346
				c-0.679,0-1.126-0.557-1.344-1.669c-0.136-0.759-0.38-1.5-0.732-2.219C588.448-2127.867,588.054-2128.505,587.621-2129.103z
				 M606.104-2129.123c0-0.339-0.279-0.658-0.835-0.957c-0.503-0.257-0.978-0.427-1.424-0.509c-0.138-0.04-0.205-0.135-0.205-0.285
				c0-0.163,0.096-0.292,0.286-0.387c0.244-0.135,0.651-0.204,1.222-0.204c1.044,0,2.117,0.36,3.215,1.079
				c0.856,0.597,1.283,1.153,1.283,1.669c0,0.299-0.183,0.55-0.551,0.753c-0.421,0.231-0.738,0.55-0.956,0.957
				c-2.009,3.949-4.274,7.281-6.799,9.995c-3.013,3.284-6.385,5.801-10.117,7.552c-0.313,0.136-0.577,0.203-0.794,0.203
				c-0.34,0-0.509-0.183-0.509-0.549c0-0.217,0.122-0.394,0.366-0.529c3.908-2.429,7.179-5.252,9.812-8.468
				c2.252-2.741,4.058-5.584,5.414-8.529C605.906-2128.159,606.104-2128.757,606.104-2129.123z M594.705-2130.976
				c-0.136-0.203-0.204-0.393-0.204-0.569c0-0.23,0.183-0.347,0.549-0.347c0.122,0,0.298,0.068,0.529,0.204
				c0.923,0.584,1.791,1.418,2.605,2.504c0.638,0.923,0.957,1.818,0.957,2.687c0,1.249-0.448,1.873-1.344,1.873
				c-0.407,0-0.699-0.122-0.875-0.366c-0.218-0.258-0.373-0.733-0.469-1.425c-0.081-0.746-0.271-1.512-0.569-2.3
				C595.654-2129.367,595.26-2130.12,594.705-2130.976z"/>
			<linearGradient id="SVGID_17_" gradientUnits="userSpaceOnUse" x1="314.5547" y1="-2134.8223" x2="1394.5103" y2="-2101.2642">
				<stop  offset="0" style="stop-color:#B9F0FF"/>
				<stop  offset="0.303" style="stop-color:#0065D0"/>
				<stop  offset="0.7212" style="stop-color:#9CCFED"/>
				<stop  offset="1" style="stop-color:#001D8B"/>
			</linearGradient>
			<path fill="url(#SVGID_17_)" d="M629.066-2133.397c-2.891,4.017-6.216,7.409-9.975,10.178c-0.272,0.163-0.517,0.244-0.733,0.244
				c-0.366,0-0.55-0.183-0.55-0.549c0-0.231,0.184-0.509,0.55-0.834c3.624-3.312,6.941-7.41,9.954-12.295
				c0.475-0.801,0.713-1.398,0.713-1.792c0-0.542-0.482-1.071-1.446-1.587c-0.339-0.163-0.508-0.339-0.508-0.529
				c0-0.312,0.461-0.468,1.384-0.468c0.705,0,1.635,0.435,2.789,1.303c0.855,0.638,1.282,1.249,1.282,1.832
				c0,0.476-0.251,0.835-0.753,1.079c-0.313,0.163-0.951,0.902-1.914,2.219c0.109,0.027,0.286,0.041,0.53,0.041
				c0.394,0,1.038-0.055,1.934-0.163c0.556-0.082,2.239-0.346,5.048-0.794c0.448-0.067,0.849-0.278,1.201-0.631
				c0.258-0.244,0.55-0.367,0.875-0.367c0.38,0,1.064,0.374,2.056,1.12c0.774,0.611,1.161,1.126,1.161,1.547
				c0,0.326-0.266,0.631-0.794,0.916c-0.462,0.258-0.768,0.523-0.916,0.794c-2.416,4.547-5.137,8.496-8.163,11.848
				c-3.881,4.302-8.387,7.83-13.517,10.585c-0.34,0.189-0.645,0.285-0.916,0.285c-0.366,0-0.55-0.21-0.55-0.631
				c0-0.217,0.157-0.421,0.469-0.611c5.048-3.121,9.269-6.751,12.661-10.89c3.217-3.894,5.788-7.837,7.715-11.827
				c0.055-0.108,0.081-0.237,0.081-0.387c0-0.135-0.081-0.204-0.244-0.204c-0.57,0-2.144,0.251-4.723,0.753
				c-1.112,0.218-1.974,0.326-2.585,0.326C630.654-2132.889,629.947-2133.058,629.066-2133.397z"/>
			<linearGradient id="SVGID_18_" gradientUnits="userSpaceOnUse" x1="314.5747" y1="-2135.5933" x2="1394.5468" y2="-2102.0347">
				<stop  offset="0" style="stop-color:#B9F0FF"/>
				<stop  offset="0.303" style="stop-color:#0065D0"/>
				<stop  offset="0.7212" style="stop-color:#9CCFED"/>
				<stop  offset="1" style="stop-color:#001D8B"/>
			</linearGradient>
			<path fill="url(#SVGID_18_)" d="M663.894-2129.469c2.755-0.285,5.504-0.509,8.246-0.672c0-0.76,0-1.33,0-1.71l-0.021-3.664
				c0-1.614-0.121-2.558-0.366-2.83c-0.325-0.42-1.153-0.8-2.484-1.14c-0.216-0.067-0.325-0.176-0.325-0.325
				c0-0.19,0.185-0.387,0.55-0.591c0.286-0.163,0.657-0.244,1.12-0.244c0.786,0,1.758,0.238,2.911,0.713
				c1.166,0.475,1.75,1.045,1.75,1.71c0,0.244-0.143,0.509-0.427,0.794c-0.272,0.271-0.407,0.841-0.407,1.709
				c0,0.611-0.028,2.416-0.081,5.415c1.207-0.054,2.571-0.169,4.091-0.346c0.732-0.095,1.174-0.189,1.322-0.285
				c0.449-0.217,0.856-0.326,1.222-0.326c1.059,0,2.097,0.305,3.116,0.916c0.475,0.285,0.711,0.686,0.711,1.201
				c0,0.611-0.413,0.916-1.241,0.916c-0.503,0-1.312-0.067-2.423-0.203c-1.141-0.108-2.797-0.163-4.968-0.163
				c-0.828,0-1.451,0-1.872,0c-0.109,5.333-1.235,9.473-3.378,12.417c-2.553,3.515-6,5.951-10.342,7.308
				c-0.285,0.081-0.516,0.122-0.692,0.122c-0.34,0-0.509-0.143-0.509-0.428c0-0.244,0.183-0.448,0.55-0.61
				c2.036-0.882,3.921-2.049,5.658-3.502c1.52-1.275,2.755-2.639,3.706-4.091c1.777-2.728,2.707-6.425,2.788-11.094
				c-2.945,0.149-5.68,0.374-8.204,0.672v2.932c0,1.981,0,3.243,0,3.786c0,1.357-0.359,2.035-1.078,2.035
				c-0.896,0-1.343-0.651-1.343-1.954c0-0.312,0.04-1.309,0.121-2.992c0.067-1.479,0.109-2.652,0.123-3.521
				c-1.182,0.136-2.442,0.346-3.787,0.631c-0.8,0.149-1.37,0.333-1.71,0.55c-0.354,0.217-0.685,0.326-0.996,0.326
				c-0.761,0-1.677-0.502-2.749-1.506c-0.949-0.868-1.424-1.574-1.424-2.117c0-0.285,0.135-0.428,0.407-0.428
				c0.162,0,0.371,0.109,0.629,0.326c0.978,0.732,1.921,1.099,2.83,1.099c0.612,0,1.323-0.041,2.137-0.123
				c1.127-0.135,2.695-0.305,4.703-0.509c0-1.858,0-3.277,0-4.254c0-0.869-0.148-1.438-0.446-1.71
				c-0.463-0.394-1.176-0.739-2.14-1.038c-0.379-0.095-0.569-0.217-0.569-0.367c0-0.217,0.123-0.387,0.367-0.509
				c0.338-0.19,0.732-0.285,1.18-0.285c0.747,0,1.785,0.319,3.116,0.956c0.896,0.421,1.342,0.849,1.342,1.283
				c0,0.285-0.095,0.563-0.283,0.834c-0.219,0.326-0.348,0.882-0.388,1.669C663.909-2132.102,663.894-2131.029,663.894-2129.469z"/>
			<linearGradient id="SVGID_19_" gradientUnits="userSpaceOnUse" x1="314.6748" y1="-2138.5249" x2="1394.6198" y2="-2104.9673">
				<stop  offset="0" style="stop-color:#B9F0FF"/>
				<stop  offset="0.303" style="stop-color:#0065D0"/>
				<stop  offset="0.7212" style="stop-color:#9CCFED"/>
				<stop  offset="1" style="stop-color:#001D8B"/>
			</linearGradient>
			<path fill="url(#SVGID_19_)" d="M709.574-2130.609c3.461-0.312,6.012-0.563,7.653-0.753c0.693-0.067,1.222-0.203,1.589-0.407
				c0.515-0.312,0.916-0.468,1.202-0.468c0.977,0,1.904,0.21,2.788,0.631c0.896,0.407,1.342,0.91,1.342,1.507
				c0,0.692-0.46,1.038-1.384,1.038c-0.202,0-0.494-0.027-0.874-0.082c-0.448-0.067-0.782-0.108-0.999-0.122
				c-0.488-0.041-1.118-0.061-1.893-0.061c-0.339,0-0.679,0.007-1.017,0.02c-1.981,0-4.784,0.123-8.408,0.367
				c0.014,0.773,0.021,2.056,0.021,3.847c0,1.764,0.006,2.986,0.02,3.665c0,1.18,0.04,2.544,0.121,4.091
				c0.054,2.009,0.082,3.189,0.082,3.542c0,0.883-0.236,1.717-0.711,2.504c-0.584,1.005-1.154,1.507-1.71,1.507
				c-0.463,0-0.782-0.333-0.957-0.998c-0.138-0.57-0.455-0.99-0.958-1.262c-0.923-0.556-2.001-1.038-3.236-1.445
				c-0.394-0.136-0.59-0.359-0.59-0.672c0-0.285,0.154-0.428,0.469-0.428c0.039,0,0.081,0,0.121,0
				c1.939,0.34,3.405,0.509,4.396,0.509c0.326,0,0.536-0.054,0.632-0.163c0.081-0.095,0.123-0.306,0.123-0.631l0.04-13.842
				c-3.216,0.34-6.107,0.74-8.671,1.201c-0.68,0.108-1.196,0.258-1.547,0.448c-0.436,0.285-0.795,0.427-1.081,0.427
				c-0.814,0-1.676-0.556-2.584-1.669c-0.692-0.868-1.038-1.547-1.038-2.036c0-0.176,0.062-0.332,0.183-0.468
				c0.109-0.108,0.217-0.163,0.326-0.163c0.135,0,0.379,0.184,0.732,0.55c0.882,0.773,1.729,1.16,2.544,1.16
				c0.379,0,1.162-0.067,2.342-0.203c5.048-0.489,7.966-0.767,8.754-0.835l-0.042-5.801c0-0.814-0.171-1.309-0.508-1.486
				c-0.272-0.149-0.91-0.224-1.915-0.224c-0.298,0-0.446-0.143-0.446-0.427c0-0.217,0.148-0.421,0.446-0.611
				c0.612-0.42,1.393-0.631,2.342-0.631c0.665,0,1.458,0.265,2.381,0.794c0.801,0.476,1.201,0.916,1.201,1.323
				c0,0.326-0.196,0.666-0.589,1.018c-0.34,0.285-0.531,0.937-0.57,1.955C709.641-2133.105,709.601-2131.844,709.574-2130.609z
				 M699.6-2123.871c0.107-0.339,0.292-0.509,0.55-0.509c0.271,0,0.407,0.17,0.407,0.509c0,2.198-0.57,4.187-1.71,5.964
				c-1.168,1.833-2.26,2.749-3.278,2.749c-0.436,0-0.781-0.143-1.037-0.428c-0.232-0.244-0.348-0.55-0.348-0.916
				c0-0.706,0.517-1.37,1.547-1.995c0.882-0.556,1.683-1.336,2.403-2.341C698.812-2121.72,699.3-2122.731,699.6-2123.871z
				 M715.192-2123.545c-0.298-0.217-0.447-0.428-0.447-0.631c0-0.326,0.183-0.489,0.551-0.489c0.106,0,0.385,0.082,0.834,0.244
				c2.008,0.842,3.622,1.826,4.844,2.952c1.263,1.14,1.895,2.28,1.895,3.42c0,1.14-0.463,1.71-1.385,1.71
				c-0.407,0-0.732-0.123-0.977-0.367c-0.244-0.23-0.503-0.651-0.774-1.262C718.808-2120.139,717.294-2121.998,715.192-2123.545z
				 M722.276-2142.395c1.072,0,1.968,0.401,2.687,1.201c0.624,0.692,0.938,1.5,0.938,2.423c0,1.072-0.401,1.968-1.201,2.687
				c-0.691,0.625-1.5,0.937-2.423,0.937c-1.072,0-1.968-0.4-2.688-1.201c-0.623-0.691-0.935-1.499-0.935-2.422
				c0-1.072,0.398-1.968,1.201-2.688C720.546-2142.083,721.352-2142.395,722.276-2142.395z M722.276-2141.112
				c-0.68,0-1.255,0.265-1.729,0.794c-0.407,0.447-0.61,0.963-0.61,1.547c0,0.679,0.265,1.255,0.793,1.73
				c0.448,0.407,0.963,0.61,1.547,0.61c0.679,0,1.255-0.265,1.731-0.794c0.407-0.448,0.609-0.963,0.609-1.547
				c0-0.679-0.264-1.255-0.794-1.73C723.375-2140.909,722.86-2141.112,722.276-2141.112z"/>
			<linearGradient id="SVGID_20_" gradientUnits="userSpaceOnUse" x1="314.6611" y1="-2138.2441" x2="1394.6221" y2="-2104.686">
				<stop  offset="0" style="stop-color:#B9F0FF"/>
				<stop  offset="0.303" style="stop-color:#0065D0"/>
				<stop  offset="0.7212" style="stop-color:#9CCFED"/>
				<stop  offset="1" style="stop-color:#001D8B"/>
			</linearGradient>
			<path fill="url(#SVGID_20_)" d="M763.17-2124.93c0,0.638-0.475,0.957-1.424,0.957l-5.741-0.163
				c-4.995,0-10.734,0.265-17.221,0.794c-1.128,0.096-1.872,0.278-2.24,0.55c-0.312,0.217-0.76,0.326-1.342,0.326
				c-0.774,0-1.637-0.699-2.586-2.097c-0.665-0.963-0.997-1.75-0.997-2.361c0-0.448,0.107-0.672,0.326-0.672
				c0.229,0,0.48,0.183,0.752,0.549c0.856,1.059,1.771,1.588,2.749,1.588c1.396,0,3.318-0.081,5.761-0.244
				c6.175-0.393,11.161-0.617,14.961-0.672c0.949,0,1.67-0.143,2.158-0.427c0.394-0.217,0.814-0.326,1.262-0.326
				c0.379,0,0.909,0.136,1.589,0.407C762.505-2126.137,763.17-2125.54,763.17-2124.93z"/>
			<linearGradient id="SVGID_21_" gradientUnits="userSpaceOnUse" x1="314.6953" y1="-2139.5679" x2="1394.6725" y2="-2106.0093">
				<stop  offset="0" style="stop-color:#B9F0FF"/>
				<stop  offset="0.303" style="stop-color:#0065D0"/>
				<stop  offset="0.7212" style="stop-color:#9CCFED"/>
				<stop  offset="1" style="stop-color:#001D8B"/>
			</linearGradient>
			<path fill="url(#SVGID_21_)" d="M778.458-2128.96c2.429,0.218,4.636,0.72,6.617,1.506c2.862,1.14,4.294,2.416,4.294,3.827
				c0,0.516-0.149,0.93-0.447,1.242c-0.244,0.23-0.508,0.346-0.794,0.346c-0.528,0-1.072-0.318-1.629-0.957
				c-0.854-0.95-2.089-1.927-3.703-2.931c-1.359-0.814-2.805-1.425-4.338-1.832c0,3.365,0,5.727,0,7.084l0.081,9.852
				c0,1.167-0.373,1.75-1.117,1.75c-0.368,0-0.733-0.251-1.101-0.753c-0.609-0.855-0.916-1.703-0.916-2.545
				c0-0.447,0.107-0.861,0.326-1.241c0.23-0.448,0.346-1.228,0.346-2.341c0.081-2.551,0.123-5.252,0.123-8.102
				c0.025-2.741,0.039-6.758,0.039-12.051c0-1.438-0.053-2.273-0.162-2.504c-0.284-0.597-1.031-1.153-2.238-1.669
				c-0.313-0.122-0.469-0.285-0.469-0.488c0-0.176,0.135-0.332,0.407-0.468c0.216-0.108,0.427-0.163,0.632-0.163
				c1.098,0,2.237,0.305,3.419,0.916c1.194,0.625,1.792,1.289,1.792,1.995c0,0.434-0.252,0.854-0.755,1.262
				c-0.149,0.122-0.244,0.638-0.284,1.547C778.5-2133.886,778.458-2131.647,778.458-2128.96z"/>
			<linearGradient id="SVGID_22_" gradientUnits="userSpaceOnUse" x1="314.8135" y1="-2140.8779" x2="1394.6174" y2="-2107.3247">
				<stop  offset="0" style="stop-color:#B9F0FF"/>
				<stop  offset="0.303" style="stop-color:#0065D0"/>
				<stop  offset="0.7212" style="stop-color:#9CCFED"/>
				<stop  offset="1" style="stop-color:#001D8B"/>
			</linearGradient>
			<path fill="url(#SVGID_22_)" d="M812.332-2145.51c0.19,0,0.285,0.096,0.285,0.285c0,0.149-0.095,0.306-0.285,0.468
				c-6.012,5.619-9.017,12.065-9.017,19.339c0,7.247,3.005,13.707,9.017,19.379c0.19,0.163,0.285,0.306,0.285,0.428
				c0,0.189-0.095,0.285-0.285,0.285c-0.121,0-0.305-0.082-0.549-0.244c-3.582-2.633-6.351-5.625-8.305-8.977
				c-1.996-3.42-2.993-7.043-2.993-10.87s0.997-7.45,2.993-10.87c1.966-3.434,4.79-6.453,8.468-9.059
				C812.109-2145.455,812.236-2145.51,812.332-2145.51z"/>
			<linearGradient id="SVGID_23_" gradientUnits="userSpaceOnUse" x1="314.7749" y1="-2142.1304" x2="1394.7494" y2="-2108.5718">
				<stop  offset="0" style="stop-color:#B9F0FF"/>
				<stop  offset="0.303" style="stop-color:#0065D0"/>
				<stop  offset="0.7212" style="stop-color:#9CCFED"/>
				<stop  offset="1" style="stop-color:#001D8B"/>
			</linearGradient>
			<path fill="url(#SVGID_23_)" d="M835.354-2141.397c-2.538,4.099-5.388,7.484-8.549,10.157c-2.851,2.402-6.196,4.458-10.035,6.168
				c-0.015,0-0.034,0-0.062,0c-0.23,0-0.346-0.163-0.346-0.488c0-0.067,0.025-0.115,0.081-0.143
				c2.851-1.574,5.624-3.691,8.325-6.351c2.198-2.158,4.105-4.451,5.72-6.88c1.37-2.049,2.313-3.854,2.83-5.415
				c2.836,0.869,4.254,1.465,4.254,1.792c0,0.353-0.421,0.617-1.261,0.794c2.347,3.46,5.197,6.365,8.549,8.712
				c3.134,2.186,6.486,3.773,10.056,4.764c0.095,0.027,0.143,0.095,0.143,0.203c0,0.163-0.081,0.259-0.244,0.285
				c-0.854,0.109-1.466,0.76-1.831,1.954c-0.109,0.34-0.3,0.509-0.57,0.509c-0.19,0-0.651-0.183-1.384-0.549
				c-2.375-1.208-4.846-2.985-7.41-5.333C840.253-2134.273,837.5-2137.666,835.354-2141.397z M833.583-2109.459v-8.59h-8.039
				c-0.828,0-1.745,0.095-2.748,0.285l-0.427-1.608c1.003,0.19,2.061,0.285,3.175,0.285h8.039v-7.552h-6.635
				c-0.924,0-1.839,0.082-2.748,0.245l-0.366-1.568c0.964,0.19,2,0.285,3.114,0.285h14.188c1.031-1.316,1.671-1.975,1.915-1.975
				c0.256,0,0.988,0.503,2.198,1.507c0.582,0.488,0.874,0.869,0.874,1.14c0,0.244-0.191,0.366-0.57,0.366h-9.302v7.552h7.125
				c1.18-1.452,1.879-2.178,2.096-2.178c0.204,0,0.949,0.543,2.24,1.629c0.663,0.57,0.997,0.977,0.997,1.221
				s-0.177,0.367-0.528,0.367h-11.93v8.59h11.93c1.288-1.533,2.035-2.3,2.237-2.3c0.245,0,1.039,0.583,2.382,1.75
				c0.665,0.611,0.999,1.019,0.999,1.222c0,0.244-0.177,0.366-0.53,0.366h-32.733c-0.867,0-1.886,0.082-3.052,0.244l-0.367-1.526
				c1.072,0.163,2.198,0.244,3.38,0.244H833.583z"/>
			<linearGradient id="SVGID_24_" gradientUnits="userSpaceOnUse" x1="314.791" y1="-2142.5742" x2="1394.7639" y2="-2109.0156">
				<stop  offset="0" style="stop-color:#B9F0FF"/>
				<stop  offset="0.303" style="stop-color:#0065D0"/>
				<stop  offset="0.7212" style="stop-color:#9CCFED"/>
				<stop  offset="1" style="stop-color:#001D8B"/>
			</linearGradient>
			<path fill="url(#SVGID_24_)" d="M872.015-2134.965h-9.953c-0.814,0-1.792,0.081-2.932,0.244l-0.407-1.567
				c1.249,0.19,2.361,0.285,3.339,0.285h13.252v-4.377c0-1.018-0.069-2.185-0.204-3.501c1.914,0.19,3.169,0.387,3.767,0.59
				c0.407,0.149,0.61,0.354,0.61,0.611c0,0.339-0.489,0.719-1.466,1.14v5.537h11.725c1.371-1.561,2.171-2.341,2.403-2.341
				c0.202,0,0.997,0.584,2.381,1.75c0.72,0.598,1.079,1.018,1.079,1.262c0,0.245-0.177,0.367-0.528,0.367h-20.316
				c-0.136,2.741-0.326,5.062-0.57,6.962h12.093c0.907-0.923,1.443-1.385,1.606-1.385c0.272,0,0.896,0.435,1.873,1.303
				c0.448,0.448,0.673,0.781,0.673,0.998c0,0.23-0.401,0.563-1.201,0.997c-0.57,6.921-1.393,11.746-2.463,14.473
				c-0.761,1.968-1.69,3.243-2.79,3.827c-0.868,0.502-1.729,0.753-2.584,0.753c-0.407,0-0.646-0.184-0.713-0.55
				c-0.096-0.666-0.496-1.222-1.201-1.67c-0.691-0.434-1.913-0.929-3.664-1.485c-0.096-0.041-0.144-0.122-0.144-0.244
				c0-0.258,0.09-0.373,0.267-0.346c3.052,0.638,5.067,0.957,6.045,0.957c0.624,0,1.126-0.237,1.506-0.712
				c0.354-0.434,0.727-1.201,1.12-2.3c0.855-2.402,1.533-6.928,2.035-13.577h-12.641c-0.449,2.687-1.128,5.103-2.035,7.247
				c-1.359,3.135-3.164,5.734-5.416,7.796c-1.982,1.818-4.566,3.467-7.756,4.946c-0.027,0.014-0.053,0.021-0.081,0.021
				c-0.217,0-0.325-0.129-0.325-0.387c0-0.068,0.02-0.116,0.062-0.143c5.495-3.487,9.294-7.973,11.399-13.455
				C871.12-2124.509,871.838-2129.184,872.015-2134.965z"/>
			<linearGradient id="SVGID_25_" gradientUnits="userSpaceOnUse" x1="314.8237" y1="-2143.7798" x2="1394.7963" y2="-2110.2212">
				<stop  offset="0" style="stop-color:#B9F0FF"/>
				<stop  offset="0.303" style="stop-color:#0065D0"/>
				<stop  offset="0.7212" style="stop-color:#9CCFED"/>
				<stop  offset="1" style="stop-color:#001D8B"/>
			</linearGradient>
			<path fill="url(#SVGID_25_)" d="M905.787-2131.667c1.126,0.204,1.853,0.387,2.179,0.55c0.27,0.122,0.407,0.285,0.407,0.489
				c0,0.285-0.415,0.617-1.241,0.997v21.883c0,0.868-0.517,1.303-1.547,1.303c-0.775,0-1.162-0.36-1.162-1.079
				c0-0.462,0.067-5.401,0.204-14.819l0.082-7.491c-1.426,2.171-3.108,4.2-5.049,6.086c-0.027,0.027-0.062,0.041-0.102,0.041
				c-0.258,0-0.387-0.115-0.387-0.346c0-0.041,0.012-0.082,0.04-0.122c2.973-3.868,5.441-8.998,7.409-15.389
				c0.542-1.792,0.896-3.372,1.059-4.743c2.769,0.855,4.152,1.452,4.152,1.792c0,0.434-0.569,0.726-1.71,0.875
				C908.901-2137.855,907.457-2134.53,905.787-2131.667z M922.967-2109.744c2.103-5.767,3.718-11.48,4.846-17.14
				c0.271-1.384,0.446-2.646,0.528-3.786c1.819,0.488,2.999,0.862,3.543,1.12c0.446,0.204,0.671,0.414,0.671,0.631
				c0,0.258-0.123,0.447-0.367,0.569c-0.19,0.109-0.57,0.224-1.14,0.347c-1.412,4.56-2.592,8.075-3.541,10.544
				c-0.966,2.483-2.105,5.056-3.42,7.715h8.264c1.344-1.669,2.139-2.503,2.383-2.503c0.23,0,1.037,0.611,2.421,1.832
				c0.747,0.666,1.12,1.099,1.12,1.303c0,0.271-0.183,0.407-0.55,0.407H912.3c-0.923,0-1.968,0.082-3.134,0.244l-0.407-1.567
				c1.315,0.19,2.482,0.285,3.502,0.285H922.967z M921.176-2134.293v-5.334c0-1.573-0.068-3.005-0.203-4.295
				c1.885,0.204,3.101,0.401,3.643,0.59c0.407,0.136,0.611,0.326,0.611,0.57c0,0.354-0.488,0.727-1.466,1.12v7.349h7.837
				c1.235-1.507,1.96-2.26,2.179-2.26c0.244,0,1.078,0.584,2.504,1.75c0.664,0.543,0.997,0.937,0.997,1.181
				c0,0.245-0.183,0.367-0.55,0.367h-23.104c-1.018,0-1.975,0.081-2.87,0.244l-0.365-1.527c1.03,0.163,2.109,0.245,3.235,0.245
				H921.176z M913.808-2129.835c0-0.027,0-0.048,0-0.062c0-0.149,0.102-0.224,0.304-0.224c0.096,0,0.163,0.027,0.204,0.081
				c1.641,2.145,2.951,4.485,3.929,7.023c0.842,2.171,1.263,4.051,1.263,5.639c0,0.964-0.185,1.717-0.55,2.259
				c-0.326,0.489-0.741,0.733-1.241,0.733c-0.828,0-1.263-0.794-1.303-2.382C916.291-2121.462,915.422-2125.818,913.808-2129.835z"
				/>
			<linearGradient id="SVGID_26_" gradientUnits="userSpaceOnUse" x1="314.8872" y1="-2145.6997" x2="1394.8572" y2="-2112.1411">
				<stop  offset="0" style="stop-color:#B9F0FF"/>
				<stop  offset="0.303" style="stop-color:#0065D0"/>
				<stop  offset="0.7212" style="stop-color:#9CCFED"/>
				<stop  offset="1" style="stop-color:#001D8B"/>
			</linearGradient>
			<path fill="url(#SVGID_26_)" d="M947.924-2135.556c0.543-1.601,1.003-3.311,1.385-5.129c0.27-1.343,0.407-2.3,0.407-2.871
				c1.791,0.462,2.896,0.788,3.316,0.978c0.407,0.163,0.611,0.366,0.611,0.61c0,0.381-0.516,0.672-1.547,0.875
				c-1.005,2.063-2.077,3.909-3.217,5.537h4.683c0.826-0.896,1.337-1.343,1.527-1.343c0.202,0,0.759,0.36,1.668,1.079
				c0.475,0.381,0.713,0.686,0.713,0.916c0,0.231-0.359,0.611-1.078,1.14v7.349l0.202,15.206c0,0.747-0.528,1.12-1.587,1.12
				c-0.721,0-1.08-0.306-1.08-0.916v-1.751h-7.592v2.667c0,0.732-0.528,1.1-1.587,1.1c-0.693,0-1.039-0.292-1.039-0.876l0.163-14.88
				c0-6.256-0.081-10.375-0.244-12.356c1.165,0.502,2.179,1.018,3.032,1.547H947.924z M953.928-2125.418v-9.1h-7.592v9.1H953.928z
				 M953.928-2113.795v-10.585h-7.592v10.585H953.928z M963.842-2135.637h10.768c0.843-0.978,1.364-1.466,1.569-1.466
				c0.217,0,0.814,0.448,1.791,1.344c0.447,0.407,0.672,0.739,0.672,0.997c0,0.218-0.374,0.55-1.12,0.998
				c-0.217,9.364-0.854,16.102-1.913,20.213c-0.693,2.606-1.487,4.363-2.383,5.272c-0.842,0.828-1.806,1.242-2.89,1.242
				c-0.382,0-0.626-0.035-0.733-0.102c-0.069-0.068-0.114-0.204-0.143-0.407c-0.067-0.583-0.427-1.059-1.078-1.425
				c-0.68-0.38-1.893-0.787-3.645-1.221c-0.096-0.027-0.143-0.115-0.143-0.265c0-0.245,0.075-0.353,0.225-0.326
				c2.658,0.299,4.47,0.448,5.436,0.448c0.786,0,1.39-0.367,1.811-1.1c0.326-0.57,0.686-1.621,1.078-3.155
				c1.059-4.207,1.656-10.876,1.792-20.01h-11.582c-1.52,3.026-3.387,5.666-5.599,7.918c-0.04,0.027-0.082,0.041-0.121,0.041
				c-0.272,0-0.407-0.115-0.407-0.346c0-0.027,0.006-0.054,0.02-0.082c1.264-1.818,2.435-4.01,3.521-6.575
				c0.924-2.185,1.628-4.281,2.117-6.29c0.325-1.33,0.563-2.633,0.713-3.909c1.71,0.381,2.836,0.686,3.38,0.917
				c0.419,0.19,0.63,0.407,0.63,0.651c0,0.38-0.503,0.672-1.506,0.875C965.437-2139.348,964.684-2137.428,963.842-2135.637z
				 M962.478-2128.553c-0.028-0.041-0.04-0.082-0.04-0.122c0-0.23,0.107-0.346,0.326-0.346c0.025,0,0.062,0.007,0.101,0.02
				c2.104,0.95,3.718,2.151,4.846,3.604c0.896,1.153,1.343,2.267,1.343,3.338c0,0.72-0.171,1.276-0.508,1.669
				c-0.272,0.312-0.599,0.468-0.978,0.468c-0.761,0-1.235-0.516-1.426-1.547C965.477-2124.373,964.255-2126.734,962.478-2128.553z"
				/>
			<linearGradient id="SVGID_27_" gradientUnits="userSpaceOnUse" x1="314.9043" y1="-2146.2036" x2="1394.8723" y2="-2112.6453">
				<stop  offset="0" style="stop-color:#B9F0FF"/>
				<stop  offset="0.303" style="stop-color:#0065D0"/>
				<stop  offset="0.7212" style="stop-color:#9CCFED"/>
				<stop  offset="1" style="stop-color:#001D8B"/>
			</linearGradient>
			<path fill="url(#SVGID_27_)" d="M983.771-2145.51c0.136,0,0.278,0.055,0.428,0.163c3.678,2.605,6.5,5.625,8.468,9.059
				c1.996,3.42,2.993,7.043,2.993,10.87s-0.997,7.45-2.993,10.87c-1.982,3.42-4.763,6.412-8.345,8.977
				c-0.205,0.163-0.361,0.244-0.469,0.244c-0.219,0-0.326-0.095-0.326-0.285c0-0.136,0.107-0.292,0.326-0.469
				c5.983-5.645,8.977-12.091,8.977-19.338c0-7.301-3.033-13.774-9.1-19.42c-0.136-0.136-0.203-0.277-0.203-0.427
				C983.527-2145.428,983.609-2145.51,983.771-2145.51z"/>
			<linearGradient id="SVGID_28_" gradientUnits="userSpaceOnUse" x1="314.9478" y1="-2147.48" x2="1394.91" y2="-2113.9216">
				<stop  offset="0" style="stop-color:#B9F0FF"/>
				<stop  offset="0.303" style="stop-color:#0065D0"/>
				<stop  offset="0.7212" style="stop-color:#9CCFED"/>
				<stop  offset="1" style="stop-color:#001D8B"/>
			</linearGradient>
			<path fill="url(#SVGID_28_)" d="M1015.058-2133.275c-1.912,0.23-3.249,0.346-4.01,0.346c-1.168,0-2.089-0.183-2.769-0.549
				c-0.609-0.339-1.188-0.909-1.729-1.71c-0.137-0.23-0.204-0.42-0.204-0.57c0-0.366,0.123-0.55,0.367-0.55
				c0.202,0,0.427,0.129,0.671,0.387c0.542,0.516,1.101,0.855,1.67,1.018c0.434,0.123,1.045,0.184,1.832,0.184
				c1.507,0,3.229-0.224,5.171-0.672c0.461-0.977,0.882-2.035,1.261-3.176c0.191-0.637,0.286-1.146,0.286-1.526
				c0-0.76-0.863-1.14-2.586-1.14c-0.313,0-0.468-0.068-0.468-0.204c0-0.217,0.154-0.427,0.468-0.631
				c0.407-0.244,0.916-0.366,1.527-0.366c0.705,0,1.533,0.224,2.482,0.672c1.222,0.569,1.833,1.194,1.833,1.872
				c0,0.407-0.17,0.713-0.51,0.917c-0.421,0.271-0.78,0.712-1.078,1.323c-0.163,0.313-0.483,0.91-0.958,1.792
				c1.494-0.461,2.769-0.983,3.827-1.567c0.896-0.502,1.608-0.754,2.139-0.754c0.419,0,0.765,0.116,1.037,0.347
				c0.217,0.203,0.325,0.434,0.325,0.692c0,0.326-0.108,0.577-0.325,0.753c-0.177,0.163-0.509,0.339-0.997,0.529
				c-2.39,0.937-4.784,1.676-7.186,2.219c-1.642,2.877-3.013,5.103-4.112,6.677l0.081,0.081c1.777-1.397,3.474-2.097,5.09-2.097
				c2.348,0,3.583,1.242,3.704,3.726c0.054,0.665,0.081,1.235,0.081,1.71c3.99-2.389,6.868-4.173,8.632-5.354
				c0.297-0.204,0.448-0.441,0.448-0.712c0-0.189-0.123-0.366-0.367-0.529c-0.38-0.258-0.868-0.428-1.466-0.509
				c-0.244-0.041-0.365-0.122-0.365-0.244c0-0.204,0.188-0.373,0.57-0.509c0.312-0.108,0.677-0.163,1.098-0.163
				c0.963,0,1.988,0.333,3.074,0.997c1.14,0.706,1.71,1.364,1.71,1.975c0,0.529-0.278,0.821-0.834,0.875
				c-0.477,0.068-0.89,0.177-1.241,0.326c-2.187,0.91-4.717,2.131-7.595,3.664c-0.435,0.244-1.072,0.611-1.912,1.1
				c-0.87,0.488-1.454,0.821-1.752,0.997l0.042,6.005c0,1.059-0.381,1.588-1.14,1.588c-0.326,0-0.604-0.115-0.834-0.346
				c-0.219-0.217-0.326-0.475-0.326-0.773c0-0.462,0.02-1.263,0.06-2.402c0.042-1.153,0.067-2.097,0.082-2.83
				c-1.887,1.059-3.229,1.961-4.03,2.708c-1.182,1.126-1.771,2.307-1.771,3.542c0,2.063,1.608,3.094,4.824,3.094
				c2.333,0,4.438-0.108,6.312-0.325c0.732-0.095,1.491-0.237,2.279-0.428c0.733-0.163,1.262-0.244,1.587-0.244
				c0.774,0,1.412,0.197,1.915,0.59c0.419,0.313,0.631,0.672,0.631,1.079c0,0.747-0.808,1.194-2.423,1.344
				c-2.035,0.163-4.661,0.244-7.878,0.244c-5.781,0-8.671-1.696-8.671-5.089c0-1.832,0.807-3.515,2.421-5.048
				c0.963-0.909,2.578-2.049,4.846-3.42c0-0.841,0-1.425,0-1.75c0.026-1.452-0.171-2.456-0.59-3.013
				c-0.325-0.421-0.809-0.631-1.445-0.631c-1.603,0-3.372,0.916-5.313,2.748c-1.235,1.208-2.484,2.701-3.746,4.478
				c-0.285,0.421-0.639,0.631-1.059,0.631c-0.313,0-0.583-0.136-0.813-0.407c-0.205-0.244-0.307-0.536-0.307-0.875
				c0-0.529,0.399-1.214,1.202-2.056c1.628-1.669,3.032-3.352,4.212-5.048C1012.995-2129.611,1014-2131.28,1015.058-2133.275z"/>
			<linearGradient id="SVGID_29_" gradientUnits="userSpaceOnUse" x1="314.9448" y1="-2148.21" x2="1394.9463" y2="-2114.6504">
				<stop  offset="0" style="stop-color:#B9F0FF"/>
				<stop  offset="0.303" style="stop-color:#0065D0"/>
				<stop  offset="0.7212" style="stop-color:#9CCFED"/>
				<stop  offset="1" style="stop-color:#001D8B"/>
			</linearGradient>
			<path fill="url(#SVGID_29_)" d="M1059.435-2119.25c-0.68,2.32-1.819,4.309-3.42,5.964c-3.366,3.461-8.115,5.727-14.25,6.799
				c-0.177,0.027-0.264-0.088-0.264-0.346c0-0.136,0.048-0.217,0.143-0.244c3.095-1.018,5.639-2.145,7.633-3.379
				c1.561-0.963,3.034-2.158,4.418-3.583c1.466-1.506,2.517-3.284,3.154-5.333h-10.544c-0.87,0-1.914,0.081-3.136,0.244
				l-0.365-1.567c1.084,0.189,2.238,0.285,3.459,0.285h10.892c0.394-1.466,0.651-3.04,0.774-4.723h-8.083
				c-1.017,0-1.987,0.081-2.909,0.244l-0.388-1.567c1.003,0.19,2.104,0.285,3.297,0.285h8.143c0.081-1.167,0.123-2.457,0.123-3.868
				v-0.468h-9.058c-1.047,0-2.016,0.081-2.912,0.244l-0.427-1.567c1.247,0.19,2.348,0.285,3.297,0.285h9.1
				c0-1.507-0.075-3.087-0.225-4.743c1.833,0.258,2.966,0.447,3.4,0.57c0.365,0.095,0.55,0.238,0.55,0.427
				c0,0.34-0.381,0.699-1.14,1.079c0,1.059-0.014,1.948-0.042,2.667h8.448c1.152-1.357,1.854-2.036,2.098-2.036
				c0.23,0,0.977,0.516,2.238,1.547c0.611,0.475,0.915,0.862,0.915,1.16c0,0.245-0.19,0.367-0.57,0.367h-13.129v1.425
				c0,1.018-0.048,1.988-0.143,2.911h7.715c1.182-1.357,1.879-2.036,2.098-2.036c0.188,0,0.922,0.529,2.198,1.588
				c0.61,0.502,0.916,0.875,0.916,1.12c0,0.245-0.191,0.367-0.57,0.367h-12.396c-0.137,1.777-0.367,3.352-0.693,4.723h11.624
				c1.235-1.425,1.969-2.138,2.198-2.138c0.205,0,0.97,0.543,2.3,1.628c0.666,0.543,0.999,0.937,0.999,1.181
				c0,0.245-0.177,0.367-0.53,0.367h-15.897c2.048,2.836,4.526,5.015,7.43,6.534c2.701,1.438,6.275,2.354,10.728,2.748
				c0.122,0.027,0.184,0.102,0.184,0.224s-0.062,0.204-0.184,0.245c-0.639,0.163-1.105,0.407-1.403,0.733
				c-0.286,0.298-0.544,0.773-0.774,1.425c-0.121,0.366-0.374,0.55-0.753,0.55c-0.354,0-1.005-0.149-1.954-0.448
				c-2.566-0.787-4.987-2.015-7.267-3.685C1063.559-2113.164,1061.212-2115.898,1059.435-2119.25z M1046.508-2138.548h11.604v-2.728
				c0-0.882-0.075-1.879-0.225-2.992c1.873,0.203,3.101,0.4,3.685,0.59c0.407,0.136,0.611,0.313,0.611,0.529
				c0,0.367-0.482,0.74-1.445,1.12v3.48h12.174c0.921-1.031,1.491-1.547,1.71-1.547c0.202,0,0.921,0.577,2.156,1.73
				c0.693,0.624,1.039,1.093,1.039,1.404c0,0.448-0.522,0.672-1.567,0.672c-0.57,0-1.086,0.19-1.547,0.57
				c-0.244,0.204-1.033,0.814-2.361,1.832c-0.042,0.027-0.081,0.041-0.123,0.041c-0.217,0-0.326-0.088-0.326-0.265
				c0-0.041,0.006-0.074,0.021-0.102c0.475-0.937,0.917-2.036,1.324-3.298h-26.729c-0.067,1.643-0.475,2.938-1.222,3.888
				c-0.624,0.801-1.37,1.201-2.238,1.201c-0.449,0-0.814-0.155-1.101-0.468c-0.244-0.271-0.365-0.59-0.365-0.957
				c0-0.447,0.115-0.8,0.346-1.059c0.217-0.244,0.618-0.529,1.201-0.854c1.601-0.909,2.463-2.49,2.586-4.743
				c0-0.122,0.088-0.183,0.265-0.183c0.162,0,0.256,0.061,0.283,0.183C1046.387-2139.81,1046.468-2139.158,1046.508-2138.548z"/>
			<linearGradient id="SVGID_30_" gradientUnits="userSpaceOnUse" x1="314.9985" y1="-2149.271" x2="1394.9691" y2="-2115.7124">
				<stop  offset="0" style="stop-color:#B9F0FF"/>
				<stop  offset="0.303" style="stop-color:#0065D0"/>
				<stop  offset="0.7212" style="stop-color:#9CCFED"/>
				<stop  offset="1" style="stop-color:#001D8B"/>
			</linearGradient>
			<path fill="url(#SVGID_30_)" d="M1091.128-2118.375c1.629-0.569,3.481-1.282,5.559-2.137c0.012-0.013,0.032-0.02,0.06-0.02
				c0.205,0,0.306,0.102,0.306,0.305c0,0.068-0.027,0.123-0.081,0.163c-2.89,2.036-6.786,4.099-11.684,6.188
				c-0.177,1.086-0.401,1.628-0.673,1.628c-0.258,0-0.509-0.245-0.753-0.733c-0.244-0.529-0.632-1.574-1.159-3.135
				c0.935-0.136,1.743-0.292,2.422-0.468c1.289-0.326,2.469-0.658,3.541-0.998v-11.298h-2.341c-0.61,0-1.458,0.082-2.544,0.245
				l-0.407-1.547c0.938,0.177,1.906,0.265,2.911,0.265h2.381v-9.893h-2.788c-0.884,0-1.757,0.081-2.625,0.244l-0.388-1.527
				c0.963,0.163,1.954,0.245,2.971,0.245h6.801c1.03-1.222,1.654-1.832,1.872-1.832c0.189,0,0.896,0.475,2.117,1.425
				c0.557,0.447,0.834,0.794,0.834,1.038c0,0.271-0.196,0.407-0.59,0.407h-5.741v9.893h1.71c0.896-1.085,1.466-1.628,1.71-1.628
				c0.205,0,0.828,0.427,1.873,1.282c0.502,0.435,0.754,0.773,0.754,1.018s-0.198,0.366-0.592,0.366h-5.455V-2118.375z
				 M1091.027-2106.487c-0.19,0.027-0.283-0.088-0.283-0.346c0-0.108,0.039-0.177,0.121-0.203c5.455-1.697,9.153-4.404,11.094-8.122
				c0.637-1.235,0.998-2.653,1.08-4.255c1.587,0.313,2.611,0.557,3.072,0.733c0.435,0.149,0.651,0.333,0.651,0.549
				c0,0.326-0.461,0.631-1.385,0.916c-0.896,3.095-2.619,5.523-5.169,7.288C1097.941-2108.354,1094.882-2107.206,1091.027-2106.487z
				 M1111.81-2120.35v9.262c0,0.597,0.177,0.991,0.53,1.181c0.338,0.19,0.989,0.285,1.954,0.285c1.18,0,1.988-0.054,2.423-0.163
				c0.394-0.108,0.705-0.319,0.936-0.631c0.53-0.637,1.112-2.334,1.752-5.089c0.025-0.108,0.107-0.163,0.244-0.163
				c0.175,0,0.265,0.068,0.265,0.204c-0.015,0.285-0.034,0.733-0.063,1.344c-0.039,1.221-0.062,2.001-0.062,2.341
				c0,0.625,0.197,1.011,0.593,1.16c0.365,0.122,0.548,0.468,0.548,1.038c0,0.828-0.557,1.397-1.669,1.71
				c-1.14,0.366-2.931,0.55-5.373,0.55c-1.887,0-3.17-0.319-3.848-0.957c-0.516-0.475-0.774-1.229-0.774-2.259l0.082-3.603v-6.209
				h-8.02v0.713c0,0.747-0.53,1.119-1.589,1.119c-0.691,0-1.039-0.305-1.039-0.916l0.163-13.251c0-5.32-0.095-8.834-0.284-10.544
				c1.031,0.407,2.028,0.909,2.993,1.506h12.56c0.826-0.896,1.336-1.343,1.527-1.343c0.216,0,0.772,0.36,1.668,1.079
				c0.475,0.448,0.713,0.773,0.713,0.978c0,0.23-0.373,0.617-1.12,1.16v6.596l0.163,13.537c0,0.747-0.503,1.12-1.506,1.12
				c-0.774,0-1.162-0.306-1.162-0.916v-0.835H1111.81z M1114.416-2135.047v-5.638h-13.087v5.638H1114.416z M1114.416-2128.309v-5.7
				h-13.087v5.7H1114.416z M1114.416-2121.388v-5.883h-13.087v5.883H1114.416z"/>
			<linearGradient id="SVGID_31_" gradientUnits="userSpaceOnUse" x1="314.6123" y1="-2137.4141" x2="1394.6051" y2="-2103.855">
				<stop  offset="0" style="stop-color:#B9F0FF"/>
				<stop  offset="0.303" style="stop-color:#0065D0"/>
				<stop  offset="0.7212" style="stop-color:#9CCFED"/>
				<stop  offset="1" style="stop-color:#001D8B"/>
			</linearGradient>
			<path fill="url(#SVGID_31_)" d="M1130.397-2117.459c1.587,0,2.917,0.591,3.99,1.771c0.921,1.031,1.384,2.232,1.384,3.603
				c0,1.588-0.592,2.925-1.771,4.01c-1.033,0.937-2.232,1.405-3.603,1.405c-1.589,0-2.925-0.598-4.012-1.792
				c-0.936-1.045-1.404-2.252-1.404-3.624c0-1.588,0.599-2.917,1.792-3.989C1127.817-2116.997,1129.025-2117.459,1130.397-2117.459z
				 M1130.397-2116.034c-1.182,0-2.167,0.435-2.953,1.303c-0.691,0.76-1.036,1.642-1.036,2.646c0,1.181,0.438,2.172,1.322,2.972
				c0.759,0.678,1.648,1.018,2.667,1.018c1.166,0,2.143-0.441,2.932-1.323c0.677-0.76,1.017-1.649,1.017-2.667
				c0-1.153-0.436-2.131-1.303-2.931C1132.282-2115.694,1131.4-2116.034,1130.397-2116.034z"/>
		</g>
		<rect x="415.375" y="-2082.037" display="inline" fill="none" width="843.968" height="32.999"/>
		
			<text transform="matrix(1 0 0 1 415.375 -2069.7168)" display="inline" opacity="0.8" fill="#0062B0" font-family="'KozGoPro-Bold-90ms-RKSJ-H'" font-size="14" letter-spacing="6">We realize &quot;holistic support&quot; appropriate for each person</text>
	</g>
	<g display="none">
		<rect x="411.027" y="-1687.355" display="inline" opacity="0.8" fill="#0062B0" width="1097.945" height="65.493"/>
		<g display="inline">
			
				<text transform="matrix(1 0 0 1 900.2749 -1649.0571)" fill="#FFFFFF" font-family="'YuGothic-Regular'" font-size="18" letter-spacing="1">Information</text>
		</g>
	</g>
	<polyline fill="none" stroke="#FFFFFF" points="1121.925,-963.953 1130.817,-969.643 1139.708,-963.953 	"/>
</g>
<g id="ガイド">
	<g display="none" opacity="0.9">
		<rect x="589.109" y="-87.94" display="inline" fill="#B6FFA1" width="332" height="566"/>
	</g>
	<g display="none">
		<defs>
			<rect id="SVGID_32_" x="588.553" y="354.81" width="333.015" height="120"/>
		</defs>
		<clipPath id="SVGID_33_" display="inline">
			<use xlink:href="#SVGID_32_"  overflow="visible"/>
		</clipPath>
		<g display="inline" clip-path="url(#SVGID_33_)">
			
				<rect x="226.034" y="399.574" transform="matrix(0.8086 -0.5884 0.5884 0.8086 -176.5628 264.0593)" fill="#EA9CC2" width="182.99" height="7.599"/>
			
				<rect x="788.505" y="476.07" transform="matrix(0.8086 -0.5884 0.5884 0.8086 -113.8951 609.6688)" fill="#EA9CC2" width="182.99" height="7.6"/>
			
				<rect x="203.637" y="437.224" transform="matrix(0.8086 -0.5884 0.5884 0.8086 -203.0033 258.0864)" fill="#6CBA4E" width="182.99" height="7.599"/>
			
				<rect x="370.6" y="314.876" transform="matrix(0.8086 -0.5884 0.5884 0.8086 -99.05 332.9077)" fill="#6CBA4E" width="182.991" height="7.6"/>
			
				<rect x="773.991" y="435.415" transform="matrix(0.8086 -0.5884 0.5884 0.8086 -93.2366 593.4973)" fill="#F1F1A0" width="182.992" height="9.245"/>
			
				<rect x="726.184" y="493.807" transform="matrix(0.8086 -0.5884 0.5884 0.8086 -136.7462 576.5511)" fill="#9ED8F4" width="182.99" height="9.245"/>
			
				<rect x="886.717" y="376.87" transform="matrix(0.8086 -0.5884 0.5884 0.8086 -37.207 648.6247)" fill="#6CBA4E" width="182.99" height="9.245"/>
			
				<rect x="278.169" y="402.659" transform="matrix(0.8086 -0.5884 0.5884 0.8086 -168.3975 295.3273)" fill="#F6B27D" width="182.99" height="7.6"/>
		</g>
	</g>
</g>
</svg>
